…
#total number of homicides within cities
homicides_data %>% 
  group_by(city_state) %>% 
  summarise(
    n = n()
  )
```

    ## # A tibble: 51 × 2
    ##    city_state         n
    ##    <chr>          <int>
    ##  1 Albuquerque,NM   378
    ##  2 Atlanta,GA       973
    ##  3 Baltimore,MD    2827
    ##  4 Baton Rouge,LA   424
    ##  5 Birmingham,AL    800
    ##  6 Boston,MA        614
    ##  7 Buffalo,NY       521
    ##  8 Charlotte,NC     687
    ##  9 Chicago,IL      5535
    ## 10 Cincinnati,OH    694
    ## # … with 41 more rows

Total number of homicide cases within each city as a table.

``` r
#total number of unsolved homicides
homicides_data %>% 
  mutate(status = ifelse(disposition == "Closed by arrest", "solved", "unsolved")) %>% 
  filter(status == "unsolved") %>% 
  group_by(city_state) %>% 
  summarise(unsolved_case = n())
```

    ## # A tibble: 50 × 2
    ##    city_state     unsolved_case
    ##    <chr>                  <int>
    ##  1 Albuquerque,NM           146
    ##  2 Atlanta,GA               373
    ##  3 Baltimore,MD            1825
    ##  4 Baton Rouge,LA           196
    ##  5 Birmingham,AL            347
    ##  6 Boston,MA                310
    ##  7 Buffalo,NY               319
    ##  8 Charlotte,NC             206
    ##  9 Chicago,IL              4073
    ## 10 Cincinnati,OH            309
    ## # … with 40 more rows
…
